EDA_Biathlon.Rmd
…
season doest affect speed. #speed vs age

speed_age <- function(){
  dat%>%
    group_by(speed)%>%
    summarise(age_mean=round(mean(age)),
            age_median=round(median(age),),
            speed_mean=round(mean(speed),0.5),
            n=n())%>%
    arrange(speed_mean)
}
speed_age()

## # A tibble: 7,790 x 5
##    speed age_mean age_median speed_mean     n
##    <dbl>    <dbl>      <dbl>      <dbl> <int>
##  1  4.33       21         21        4.3     1
##  2  4.39       20         20        4.4     1
##  3  4.41       22         22        4.4     1
##  4  4.43       23         23        4.4     1
##  5  4.49       21         21        4.5     1
##  6  4.53       21         21        4.5     1
##  7  4.53       44         44        4.5     1
##  8  4.53       23         23        4.5     1
##  9  4.54       22         22        4.5     1
## 10  4.55       20         20        4.6     1
## # ... with 7,780 more rows
…
course rank has higher effect on speed than rank. with a correlation of -0.54 meaning the person ranked 1st in course rank will have higher speed.

Faster people are ranked higher, thus negative correlation. #country vs speed nation variable has 42 levels meaning 42 different countries.

country_data <-function(){
  dat%>%
    group_by(nation)%>%
    summarise(speed_mean=mean(speed),
            speed_median=mean(speed))%>%
    arrange(speed_mean)
    
}
country_data()

## # A tibble: 42 x 3
##    nation speed_mean speed_median
##    <fct>       <dbl>        <dbl>
##  1 TUR          4.64         4.64
##  2 AUS          5.11         5.11
##  3 GRL          5.23         5.23
##  4 CRO          5.36         5.36
##  5 BRA          5.41         5.41
##  6 NZL          5.44         5.44
##  7 NED          5.51         5.51
##  8 GRE          5.51         5.51
##  9 BIH          5.57         5.57
## 10 GBR          5.64         5.64
## # ... with 32 more rows
…
